{
  "productos": [
    {
      "nombre": "Rib Eye",
      "precio": "500",
      "id": 7
    },
    {
      "nombre": "Jugo de Limón",
      "precio": 100,
      "id": 9
    },
    {
      "nombre": "Manzana",
      "precio": "20",
      "id": 10
    },
    {
      "nombre": "Pera",
      "precio": 600,
      "id": 11
    }
  ]
}